execute positioned ~ ~-0.77 ~ as @e[distance=..0,sort=nearest,limit=1,tag=CraftingMachineButton] at @s run teleport @s ~ ~-0.15 ~
playsound minecraft:block.stone_button.click_on block @a
function metacraft:blocks/crafting-machine/count-items
clear @a[distance=..8] minecraft:stone{display:{Lore:["{\"text\":\"StartCrafting\"}"]}} 1
tag @s add crafting